[
  {
    "condition": "function (R) {     R.when((this.nodos.filter(function( obj ) { return obj.nombre == 'ventilacion living';})[0].estado == false)) && (this.nodos.filter(function( obj ) { return obj.nombre == 'temperatura living';})[0].temperatura >= 28));    }",
    "consequence":"function (R) {      this.nodos.filter(function( obj ) { return obj.nombre == 'temperatura living';})[0].estado = true; console.log('[Regla Aplicada] ventilacion living.estado = true porque la temperatura esta sobre 28 ');  R.next();    }",
    "on":true
  }
]
